{
 "label": "box12",
 "type": "assembly",
 "include": ["box1", "box2"],
 "features": {
  "grasp-poses": {
   "Gripper_for_Part__Feature059": {
    "placement": {
     "position": {
      "x": 0.0,
      "y": 0.0,
      "z": 0.129
     },
     "orientation": {
      "x": 0.0,
      "y": 1.0,
      "z": 0.0,
      "w": 0.0
     }
    },
    "distance": 0.015
   }
  },
  "placements": {
   "placement": {
    "position": {
     "x": 0.0,
     "y": 0.0,
     "z": 0.0
    },
    "orientation": {
     "x": 0.0,
     "y": 0.0,
     "z": 0.0,
     "w": 0.0
    }
   }
  }
 }
}